BRFSS Exploratory Data Analysis
…
Exploratory Data Analysis for Question 2

To determine if there is an association between smoking habits and the number of days where physical health was not good, the summary statistics for measures of center and measures of the spread were determined. The skew of the data was also determined by comparing the mean and median - SMKR_AGE_HLTH_SUM:

SMKR_AGE_HLTH <- allprep(X_SMOKER3_f,X_AGE_G_f, PHYSHLTH) 

SMKR_AGE_HLTH_SUM <- SMKR_AGE_HLTH %>% 
    group_by(X_AGE_G_f, X_SMOKER3_f) %>%
    filter(X_SMOKER3_f != "Unknown") %>%
    summarize(Q1 = quantile(PHYSHLTH, 0.25), MEAN = mean(PHYSHLTH), MEDIAN = median(PHYSHLTH),Q3 = quantile(PHYSHLTH, 0.75), IQR = IQR(PHYSHLTH), STDEV = sd(PHYSHLTH)) %>%
    mutate(SKEW = ifelse(MEAN > MEDIAN, "RIGHT", "LEFT")) %>%
    arrange(desc(MEAN)) 
SMKR_AGE_HLTH_SUM

## # A tibble: 24 x 9
## # Groups:   X_AGE_G_f [6]
##    X_AGE_G_f       X_SMOKER3_f     Q1  MEAN MEDIAN    Q3   IQR STDEV SKEW 
##    <fct>           <fct>        <dbl> <dbl>  <dbl> <dbl> <dbl> <dbl> <chr>
##  1 Age 55 to 64    Smokes some    6.  18.5    20.  30.0  24.0  11.5 LEFT 
##  2 Age 55 to 64    Smokes ever    4.  16.4    15.  30.0  26.0  11.9 RIGHT
##  3 Age 65 or older Smokes ever    3.  16.1    15.  30.0  27.0  12.2 RIGHT
##  4 Age 65 or older Smokes some    4.  15.3    13.  30.0  26.0  11.8 RIGHT
##  5 Age 55 to 64    Former Smok    3.  15.0    10.  30.0  27.0  12.0 RIGHT
##  6 Age 45 to 54    Smokes ever    3.  14.6    10.  30.0  27.0  11.8 RIGHT
##  7 Age 65 or older Former Smok    3.  14.1    10.  30.0  27.0  11.7 RIGHT
##  8 Age 45 to 54    Smokes some    3.  13.9    10.  30.0  27.0  11.8 RIGHT
##  9 Age 65 or older Never Smoked    3.  13.0     7.  30.0  27.0  11.5 RIGHT
## 10 " Age 18 to 24" Smokes ever    2.  12.9     8.  28.2  26.2  11.9 RIGHT
## # ... with 14 more rows
…
